Наименование        Цена   Кол-во    Стоимость
===============================================
Колбаса	 0,315000   x 315,989990	 =99,536850Сыр Костромской	 0,270000   x 352,989990	 =95,307304Картошка	 4,600000   x 25,000000	 =115,000000Молоко топленое	 3,000000   x 62,000000	 =186,000000Яйцо куриное	 2,000000   x 39,900002	 =79,800003Масло сливочное	 2,000000   x 98,500000	 =197,000000Грудка цыпленка	 1,207000   x 143,899994	 =173,687302Пиво светлое	 20,000000  x 79,800003	 =1596,000000
===============================================
Итого: = 2542,331543